{
    "current_page": 1,
    "data": [
        {
            "id": 1,
            "name": "Stad Gent: Buurtwerk Dampoort",
            "description": "Wil je een initiatief opstarten  of een activiteit organiseren, maar weet je niet waar te beginnen? Zoek je een polyvalente zaal om je activiteit te laten doorgaan, maar heb je geen idee waar je een kunt vinden? Wil je graag vrijwilliger worden tijdens een bepaalde activiteit, maar je weet niet bij wie je moet aanmelden? Heb je vragen over je buurt, maar je weet niet aan welke dienst je je vraag kunt stellen?\r\nBij Buurtwerk helpen we je met de opstart van initiatieven, ondersteunen wij de activiteiten van bewoners, bieden wij een polyvalente zaal aan, proberen we de bewoners bij elkaar te brengen en hen een antwoord te geven op hun vragen.\r\n",
            "link": null,
            "phone": "+32 9 266 86 65",
            "address": "Doornakkerstraat 54, 9000 Gent",
            "email": "buurtwerk.dampoortbernadette@stad.gent",
            "image": null,
            "created_at": "2019-10-14 10:08:37",
            "updated_at": null,
            "hours": "van maandag tot vrijdag: van 09:00 tot 17:00\r\n                            Onthaal: Ma, Di, Do van 09:00 tot 12:00\r\n"
        },
        {
            "id": 2,
            "name": "Werkpunt",
            "description": "Het Werkpunt biedt gratis dienstverlening voor werkzoekenden (info, advies, persoonlijke ondersteuning op zoek naar werk).",
            "link": null,
            "phone": "09\/379 84 52",
            "address": "Doornakkerstraat 54, 9040 Gent",
            "email": "werkpunt.dampoort@stad.gent",
            "image": null,
            "created_at": "2019-10-14 10:08:42",
            "updated_at": null,
            "hours": null
        },
        {
            "id": 3,
            "name": "Gent Info",
            "description": "GIP is het centrale aanspreekpunt voor informatie over het stadsbestuur en de stadsdiensten. (klachten, suggesties, meldingen,\u2026)",
            "link": null,
            "phone": "09\/210 10 10",
            "address": null,
            "email": "gentinfo@stad.gent",
            "image": null,
            "created_at": "2019-10-14 10:10:30",
            "updated_at": null,
            "hours": null
        },
        {
            "id": 4,
            "name": "OCMW Welzijnsbureau Sint-Amandsberg",
            "description": "Het welzijnsbureau is er voor al uw vragen rond welzijn: zit u zonder inkomen, of het is uw inkomen te laag? Wilt u werken, maar geraakt u niet aan een job? Hebt u hulp nodig met uw administratie? Hebt u schulden en wilt u daaraan iets doen? In het WB Sint-Amandsberg zijn ook de maatschappelijk werkers van Thuislozenzorg aanwezig. Aanmelding gebeurt op doorverwijzing via de verschillende Onthalen van OCMW Gent.",
            "link": null,
            "phone": "09\/266 37 00",
            "address": "Wittemolenstraat 89, 9040 Sint-Amandsberg",
            "email": "onthaal.sintamandsberg@ocmw.gent",
            "image": null,
            "created_at": "2019-10-14 10:12:05",
            "updated_at": null,
            "hours": null
        },
        {
            "id": 5,
            "name": "Vzw Sivi",
            "description": "Een vereniging die armoede bestrijdt en werkt aan een menswaardig bestaan voor iedereen. Ze bieden een laagdrempelig basishulpverlening aan, verenigen mensen door groepsactiviteiten en geven mensen in armoede het woord in een themawerking. De themawerkingen vinden steeds plaats op maandag van 14u tot 16u in Jos Verdegemstraat 19. Wij werken rond wonen, actualiteit en vrije tijd.",
            "link": null,
            "phone": "09\/228.56.11",
            "address": "Doornakkerstraat 54, 9040 Sint-Amandsberg",
            "email": "eva.roeland@vzwsivi.be",
            "image": null,
            "created_at": "2019-10-14 10:16:17",
            "updated_at": null,
            "hours": "dinsdag van 13:30 tot 16:00\r\n\t\t   \t      woensdag van09:00 tot 12:00\r\n\t\t \t      donderdag van 13:30 tot 16:00\r\n"
        },
        {
            "id": 6,
            "name": "Buurtcommissariaat",
            "description": "Veiligheids- en overlastproblemen, die door de bewoners worden ervaren, worden door het buurtcommissariaat aangepakt. De buurtinspecteur is het vertrouwde gezicht en aanspreekpunt voor de buurtbewoners. Hij is er om je vragen te beantwoorden en je problemen aan te pakken. Aarzel dus nooit om je buurtinspecteur aan te spreken of je buurtcommissariaat binnen te stappen.",
            "link": null,
            "phone": "09\/266.63 00",
            "address": "Antwerpsesteenweg 378, 9040 Gent",
            "email": "comsa@politie.gent.be",
            "image": null,
            "created_at": "2019-10-14 10:21:01",
            "updated_at": null,
            "hours": "Elke werkdag 08:00 - 13:00 uur\r\nop woensdag 08:00 - 13:00 uur en 14:00 - 18:30 uur"
        },
        {
            "id": 7,
            "name": "Stad Gent: Dienstencentrum Sint-Amandsberg",
            "description": "Voor de meeste formaliteiten in verband met de gemeenteadministratie kunt u in de dienstencentra en hulpkantoren in jouw buurt terecht.",
            "link": null,
            "phone": "09 266 86 86",
            "address": "Antwerpsesteenweg 376",
            "email": "dcsa@gent.be",
            "image": null,
            "created_at": "2019-10-14 10:23:46",
            "updated_at": null,
            "hours": "maandag, dinsdag, woensdag en vrijdag: van 9 tot 12:30 uur en van 14 tot 16 uur. Na afspraak: dinsdag van 16.30 tot 19uur."
        },
        {
            "id": 8,
            "name": "Stad Gent: Mobiel Dienstencentrum",
            "description": "U bent van harte welkom in het Mobiel Dienstencentrum voor de dienstverlening van de Dienst Burgerzaken, Gentinfo en de Bibliotheek: Een nieuw rijbewijs, identiteitskaart of reispas aanvragen en afhalen, boeken en andere \u2018bib\u2019producten lenen of verlengen, een UiTPAS aanschaffen, vraag stellen, problemen melden\u2026",
            "link": null,
            "phone": null,
            "address": "Station Dampoort (ter hoogte van perron 15 \u2013 Eurolines)",
            "email": null,
            "image": null,
            "created_at": "2019-10-14 10:26:48",
            "updated_at": null,
            "hours": "Elke maandag van 11:00 tot 19:00"
        },
        {
            "id": 9,
            "name": "Stad Gent: Dienst beleidsparticipatie",
            "description": "Heel wat Gentenaars tonen zich begaan met hun stad en wijk. Ze willen weten wat de wijk vandaag te bieden heeft en hoe die morgen zal veranderen. Ze willen mee praten over plannen en projecten en eigen voorstellen doen. En ze willen zich ook actief inzetten voor hun wijk.\r\nHet Gentse stadsbestuur speelt graag in op die betrokkenheid en laat de Gentenaar mee weten, mee spreken \u00e9n mee doen!\r\nHeb jij nood aan informatie, wil je je mening geven of wil je zelf graag een en ander doen in je wijk? Laat het weten aan je wijkregisseur!",
            "link": null,
            "phone": "+32 9 266 82 51",
            "address": null,
            "email": null,
            "image": null,
            "created_at": "2019-10-14 10:34:13",
            "updated_at": null,
            "hours": null
        },
        {
            "id": 10,
            "name": "Stad Gent: Dienst Straathoekwerk",
            "description": "Straathoekwerk is gericht naar individuen en\/of groepen die door het reguliere welzijnswerk niet of onvoldoende bereikt worden.",
            "link": "http:\/\/www.gent.be\/straathoekwerk",
            "phone": "09 268 21 50",
            "address": "Abeelstraat 19, 9000 Gent",
            "email": "straathoekwerk@gent.be",
            "image": null,
            "created_at": "2019-10-14 10:37:54",
            "updated_at": null,
            "hours": null
        }
    ],
    "first_page_url": "http:\/\/127.0.0.1:8000\/api\/socialServices?page=1",
    "from": 1,
    "last_page": 6,
    "last_page_url": "http:\/\/127.0.0.1:8000\/api\/socialServices?page=6",
    "next_page_url": "http:\/\/127.0.0.1:8000\/api\/socialServices?page=2",
    "path": "http:\/\/127.0.0.1:8000\/api\/socialServices",
    "per_page": 10,
    "prev_page_url": null,
    "to": 10,
    "total": 52
}